%YAML 1.1
%TAG !u! tag:unity3d.com,2011:
--- !u!114 &11400000
MonoBehaviour:
  m_ObjectHideFlags: 0
  m_CorrespondingSourceObject: {fileID: 0}
  m_PrefabInstance: {fileID: 0}
  m_PrefabAsset: {fileID: 0}
  m_GameObject: {fileID: 0}
  m_Enabled: 1
  m_EditorHideFlags: 0
  m_Script: {fileID: 11500000, guid: 9ec8168a76c5e0d4fa3190cd53ae09cf, type: 3}
  m_Name: GamePlayData
  m_EditorClassIdentifier: 
  placementFigureData: {fileID: 11400000, guid: 3d8f7952cfc077b4ab9db86a2e5b5c39,
    type: 2}
  gamePlayDataReceived: {fileID: 11400000, guid: f730973e38bc2c2458115956dc9614b2,
    type: 2}
