%YAML 1.1
%TAG !u! tag:unity3d.com,2011:
--- !u!21 &2100000
Material:
  serializedVersion: 6
  m_ObjectHideFlags: 0
  m_CorrespondingSourceObject: {fileID: 0}
  m_PrefabInstance: {fileID: 0}
  m_PrefabAsset: {fileID: 0}
  m_Name: Yellow
  m_Shader: {fileID: 4800000, guid: 7f50d1ec77e2cc9459ca9d36924ffc53, type: 3}
  m_ShaderKeywords: ETC1_EXTERNAL_ALPHA FRONTSOLID RIGHTSOLID TOPSOLID _AOUV_UV0
    _GRADIENTSPACE_WORLD_SPACE _GRADSETTINGS_B_USE_GLOBAL _GRADSETTINGS_D_USE_GLOBAL
    _GRADSETTINGS_F_USE_GLOBAL _GRADSETTINGS_L_USE_GLOBAL _GRADSETTINGS_R_USE_GLOBAL
    _GRADSETTINGS_T_USE_GLOBAL _LMAPBLENDINGMODE_ADD _MODE_OPAQUE _SHADING_B_VERTEX_COLOR
    _SHADING_D_VERTEX_COLOR _SHADING_F_VERTEXCOLOR _SHADING_L_VERTEX_COLOR _SHADING_R_VERTEX_COLOR
    _SHADING_T_VERTEX_COLOR
  m_LightmapFlags: 4
  m_EnableInstancingVariants: 0
  m_DoubleSidedGI: 0
  m_CustomRenderQueue: -1
  stringTagMap: {}
  disabledShaderPasses: []
  m_SavedProperties:
    serializedVersion: 3
    m_TexEnvs:
    - _AOTexture:
        m_Texture: {fileID: 0}
        m_Scale: {x: 1, y: 1}
        m_Offset: {x: 0, y: 0}
    - _BumpMap:
        m_Texture: {fileID: 0}
        m_Scale: {x: 1, y: 1}
        m_Offset: {x: 0, y: 0}
    - _DetailAlbedoMap:
        m_Texture: {fileID: 0}
        m_Scale: {x: 1, y: 1}
        m_Offset: {x: 0, y: 0}
    - _DetailMask:
        m_Texture: {fileID: 0}
        m_Scale: {x: 1, y: 1}
        m_Offset: {x: 0, y: 0}
    - _DetailNormalMap:
        m_Texture: {fileID: 0}
        m_Scale: {x: 1, y: 1}
        m_Offset: {x: 0, y: 0}
    - _EmissionMap:
        m_Texture: {fileID: 0}
        m_Scale: {x: 1, y: 1}
        m_Offset: {x: 0, y: 0}
    - _MainTex:
        m_Texture: {fileID: 0}
        m_Scale: {x: 1, y: 1}
        m_Offset: {x: 0, y: 0}
    - _MainTexture:
        m_Texture: {fileID: 0}
        m_Scale: {x: 1, y: 1}
        m_Offset: {x: 0, y: 0}
    - _MetallicGlossMap:
        m_Texture: {fileID: 0}
        m_Scale: {x: 1, y: 1}
        m_Offset: {x: 0, y: 0}
    - _OcclusionMap:
        m_Texture: {fileID: 0}
        m_Scale: {x: 1, y: 1}
        m_Offset: {x: 0, y: 0}
    - _ParallaxMap:
        m_Texture: {fileID: 0}
        m_Scale: {x: 1, y: 1}
        m_Offset: {x: 0, y: 0}
    m_Floats:
    - _AOEnable: 0
    - _AOPower: 0
    - _AOuv: 0
    - _AmbientPower: 0
    - _Brightness: 0
    - _BumpScale: 1
    - _ColorCorrectionEnable: 0
    - _Cull: 2
    - _Cutoff: 0.5
    - _DetailNormalMapScale: 1
    - _DontMix: 0
    - _DstBlend: 0
    - _Fade: 1
    - _FogHeight: 10
    - _FogYStartPos: 0
    - _GSpace: 0
    - _GlossMapScale: 1
    - _Glossiness: 0.5
    - _GlossyReflections: 1
    - _GradSettings_B: 0
    - _GradSettings_D: 0
    - _GradSettings_F: 0
    - _GradSettings_L: 0
    - _GradSettings_R: 0
    - _GradSettings_T: 0
    - _GradientHeight_B: 1
    - _GradientHeight_D: 1
    - _GradientHeight_F: 1
    - _GradientHeight_G: 1
    - _GradientHeight_L: 1
    - _GradientHeight_R: 1
    - _GradientHeight_T: 1
    - _GradientSpace: 0
    - _HFogEnable: 0
    - _LMPower: 0
    - _LmapBlendingMode: 0
    - _LmapEnable: 0
    - _MainTexturePower: 0
    - _Metallic: 0
    - _Mode: 0
    - _OcclusionStrength: 1
    - _OtherSettings: 0
    - _Parallax: 0.02
    - _RealtimeShadow: 0
    - _RimEnable: 0
    - _RimPower: 1
    - _Rotation_B: 0
    - _Rotation_D: 0
    - _Rotation_F: 0
    - _Rotation_G: 0
    - _Rotation_L: 0
    - _Rotation_R: 0
    - _Rotation_T: 0
    - _Saturation: 1
    - _Shading_B: 0
    - _Shading_D: 0
    - _Shading_F: 1
    - _Shading_L: 0
    - _Shading_R: 1
    - _Shading_T: 1
    - _ShadowBlend: 0
    - _ShadowInfluence: 0
    - _ShowAO: 0
    - _ShowAmbientSettings: 0
    - _ShowBack: 0
    - _ShowBottom: 0
    - _ShowColorCorrection: 0
    - _ShowCustomShading: 1
    - _ShowFog: 0
    - _ShowFront: 1
    - _ShowGlobalGradientSettings: 0
    - _ShowLMap: 0
    - _ShowLeft: 0
    - _ShowRight: 1
    - _ShowTexture: 0
    - _ShowTop: 1
    - _SmoothnessTextureChannel: 0
    - _SpecularHighlights: 1
    - _SrcBlend: 1
    - _UVSec: 0
    - _UnityFogEnable: 0
    - _ZWrite: 1
    - _ZWriteOverride: 0
    m_Colors:
    - _AOColor: {r: 1, g: 1, b: 1, a: 1}
    - _AmbientColor: {r: 0, g: 0, b: 0, a: 0}
    - _Color: {r: 0.8000001, g: 0.56858325, b: 0.18025805, a: 1}
    - _Color1_B: {r: 1, g: 1, b: 1, a: 1}
    - _Color1_D: {r: 1, g: 1, b: 1, a: 1}
    - _Color1_F: {r: 0.9607843, g: 0.6862745, b: 0.34117648, a: 1}
    - _Color1_L: {r: 1, g: 1, b: 1, a: 1}
    - _Color1_R: {r: 0.9529412, g: 0.41568628, b: 0.3529412, a: 1}
    - _Color1_T: {r: 0.99607843, g: 0.93333334, b: 0.627451, a: 1}
    - _Color2_B: {r: 1, g: 1, b: 1, a: 1}
    - _Color2_D: {r: 1, g: 1, b: 1, a: 1}
    - _Color2_F: {r: 1, g: 1, b: 1, a: 1}
    - _Color2_L: {r: 1, g: 1, b: 1, a: 1}
    - _Color2_R: {r: 1, g: 1, b: 1, a: 1}
    - _Color2_T: {r: 1, g: 1, b: 1, a: 1}
    - _Color_Fog: {r: 0.5, g: 0.5, b: 0.5, a: 1}
    - _EmissionColor: {r: 0, g: 0, b: 0, a: 1}
    - _GizmoPosition_B: {r: 0, g: 0, b: 10, a: 10}
    - _GizmoPosition_D: {r: 0, g: 0, b: 10, a: 10}
    - _GizmoPosition_F: {r: 0, g: 0, b: 10, a: 10}
    - _GizmoPosition_L: {r: 0, g: 0, b: 10, a: 10}
    - _GizmoPosition_R: {r: 0, g: 0, b: 10, a: 10}
    - _GizmoPosition_T: {r: 0, g: 0, b: 10, a: 10}
    - _GradientXStartPos_D: {r: 0, g: 0, b: 0, a: 0}
    - _GradientXStartPos_T: {r: 0, g: 0, b: 0, a: 0}
    - _GradientYStartPos_B: {r: 0, g: 0, b: 0, a: 0}
    - _GradientYStartPos_F: {r: 0, g: 0, b: 0, a: 0}
    - _GradientYStartPos_G: {r: 0, g: 0, b: 0, a: 0}
    - _GradientYStartPos_L: {r: 0, g: 0, b: 0, a: 0}
    - _GradientYStartPos_R: {r: 0, g: 0, b: 0, a: 0}
    - _LMColor: {r: 1, g: 1, b: 1, a: 1}
    - _RimColor: {r: 1, g: 1, b: 1, a: 1}
    - _ShadowColor: {r: 0.1, g: 0.1, b: 0.1, a: 1}
    - _TintColor: {r: 1, g: 1, b: 1, a: 1}
