{
  "project_info": {
    "project_number": "251401643152",
    "firebase_url": "https://flyarr.firebaseio.com",
    "project_id": "flyarr",
    "storage_bucket": "flyarr.appspot.com"
  },
  "client": [
    {
      "client_info": {
        "mobilesdk_app_id": "1:251401643152:android:ad7b7f2146a4767f4aa415",
        "android_client_info": {
          "package_name": "com.AlvaLore.FlyAr"
        }
      },
      "oauth_client": [
        {
          "client_id": "251401643152-c5gf9i4kndphpfts2qb1inj8aq44tdnm.apps.googleusercontent.com",
          "client_type": 3
        }
      ],
      "api_key": [
        {
          "current_key": "AIzaSyBmop2KAZwy2mX4dRL9jL8e6kUsByG8TeY"
        }
      ],
      "services": {
        "appinvite_service": {
          "other_platform_oauth_client": [
            {
              "client_id": "251401643152-c5gf9i4kndphpfts2qb1inj8aq44tdnm.apps.googleusercontent.com",
              "client_type": 3
            }
          ]
        }
      }
    },
    {
      "client_info": {
        "mobilesdk_app_id": "1:251401643152:android:f71e5796464ba97b4aa415",
        "android_client_info": {
          "package_name": "com.AlvaLore.FlyArr"
        }
      },
      "oauth_client": [
        {
          "client_id": "251401643152-c5gf9i4kndphpfts2qb1inj8aq44tdnm.apps.googleusercontent.com",
          "client_type": 3
        }
      ],
      "api_key": [
        {
          "current_key": "AIzaSyBmop2KAZwy2mX4dRL9jL8e6kUsByG8TeY"
        }
      ],
      "services": {
        "appinvite_service": {
          "other_platform_oauth_client": [
            {
              "client_id": "251401643152-c5gf9i4kndphpfts2qb1inj8aq44tdnm.apps.googleusercontent.com",
              "client_type": 3
            }
          ]
        }
      }
    }
  ],
  "configuration_version": "1"
}