%YAML 1.1
%TAG !u! tag:unity3d.com,2011:
--- !u!114 &11400000
MonoBehaviour:
  m_ObjectHideFlags: 0
  m_CorrespondingSourceObject: {fileID: 0}
  m_PrefabInstance: {fileID: 0}
  m_PrefabAsset: {fileID: 0}
  m_GameObject: {fileID: 0}
  m_Enabled: 1
  m_EditorHideFlags: 0
  m_Script: {fileID: 11500000, guid: 67d145d9239460c4aa85a87594750dcc, type: 3}
  m_Name: BombsContainer
  m_EditorClassIdentifier: 
  arrowsDataContainer:
  - {fileID: 11400000, guid: 576c3ce099588884584ad923c2784dbc, type: 2}
  - {fileID: 11400000, guid: 79b852954d155da49af3381371185cb8, type: 2}
  - {fileID: 11400000, guid: 1a6240f2856b7884da429ac2c435f017, type: 2}
  - {fileID: 11400000, guid: 343f02238b3a90d47a1d0bf33968729b, type: 2}
  - {fileID: 11400000, guid: 2913445e1f8302140a84772804ef533a, type: 2}
  - {fileID: 11400000, guid: 1160db21e9080a04098f34951f9cae02, type: 2}
  - {fileID: 11400000, guid: c74111f8f3a405d4f979196e76d2ede8, type: 2}
  - {fileID: 11400000, guid: 07951ca779b3985489543930791219ef, type: 2}
  - {fileID: 11400000, guid: d3f0264188509ed4898f37087ad4a369, type: 2}
  - {fileID: 11400000, guid: e28da483951cd8046b60f97517af0545, type: 2}
  - {fileID: 11400000, guid: 3eb45087730122140bd7955197d33ceb, type: 2}
  - {fileID: 11400000, guid: d4fd425c8337dbd48a2041599cee477a, type: 2}
  - {fileID: 11400000, guid: 1df97733e8d155e4eb40be4487eba6ad, type: 2}
  - {fileID: 11400000, guid: 0356c084de0d2c340a622d64ea27f705, type: 2}
  - {fileID: 11400000, guid: 4780cb517137c7045a47fe1d53967ee8, type: 2}
  - {fileID: 11400000, guid: ee3a7c0fe809d3548b5137495a4c3813, type: 2}
  - {fileID: 11400000, guid: 11e31e8fec3abf74997145bc1cc63cdd, type: 2}
  - {fileID: 11400000, guid: 5ca6517d9f28dcb418e728ebe225a0f9, type: 2}
  - {fileID: 11400000, guid: 44f3dffdd6231874086926598c57bf6e, type: 2}
  - {fileID: 11400000, guid: 04564f2aad9e8804381986d94ab31f90, type: 2}
  - {fileID: 11400000, guid: a9ae76320d6553f478bc296ee062501a, type: 2}
  - {fileID: 11400000, guid: 4659d8eb3bac1884bac76534a16a6abc, type: 2}
