%YAML 1.1
%TAG !u! tag:unity3d.com,2011:
--- !u!114 &11400000
MonoBehaviour:
  m_ObjectHideFlags: 0
  m_CorrespondingSourceObject: {fileID: 0}
  m_PrefabInstance: {fileID: 0}
  m_PrefabAsset: {fileID: 0}
  m_GameObject: {fileID: 0}
  m_Enabled: 1
  m_EditorHideFlags: 0
  m_Script: {fileID: 11500000, guid: a0ad0c621b4363742ad2b051bafd457f, type: 3}
  m_Name: meat_new
  m_EditorClassIdentifier: 
  itemName: meat_new
  id: meat_new15
  description: 
  sprite: {fileID: 21300000, guid: 7c2a7165bdc1df34a81436ac0924d2f4, type: 3}
  goldCost: 85
  moveSpeed: 0
  health: 0
