%YAML 1.1
%TAG !u! tag:unity3d.com,2011:
--- !u!114 &11400000
MonoBehaviour:
  m_ObjectHideFlags: 0
  m_CorrespondingSourceObject: {fileID: 0}
  m_PrefabInstance: {fileID: 0}
  m_PrefabAsset: {fileID: 0}
  m_GameObject: {fileID: 0}
  m_Enabled: 1
  m_EditorHideFlags: 0
  m_Script: {fileID: 11500000, guid: a0ad0c621b4363742ad2b051bafd457f, type: 3}
  m_Name: military_jet_new
  m_EditorClassIdentifier: 
  itemName: military_jet_new
  id: military_jet_new16
  description: 
  sprite: {fileID: 21300000, guid: a51534cf64b673047b0a84c34079f921, type: 3}
  goldCost: 90
  moveSpeed: 0
  health: 0
