%YAML 1.1
%TAG !u! tag:unity3d.com,2011:
--- !u!114 &11400000
MonoBehaviour:
  m_ObjectHideFlags: 0
  m_CorrespondingSourceObject: {fileID: 0}
  m_PrefabInstance: {fileID: 0}
  m_PrefabAsset: {fileID: 0}
  m_GameObject: {fileID: 0}
  m_Enabled: 1
  m_EditorHideFlags: 0
  m_Script: {fileID: 11500000, guid: 0df5cf9079cbfc341956f030d58745e9, type: 3}
  m_Name: WallData
  m_EditorClassIdentifier: 
  LrWallData: {fileID: 1886151221104191940, guid: f4045a9ffee75984699f6683cda4a158,
    type: 3}
